<?xml version="1.0" standalone="no"?>
<!DOCTYPE svg PUBLIC "-//W3C//DTD SVG 1.1//EN" "http://www.w3.org/Graphics/SVG/1.1/DTD/svg11.dtd" >
<svg xmlns="http://www.w3.org/2000/svg">
<metadata>Generated by IcoMoon</metadata>
<defs>
<font id="icomoon" horiz-adv-x="1024">
<font-face units-per-em="1024" ascent="960" descent="-64" />
<missing-glyph horiz-adv-x="1024" />
<glyph unicode="&#x20;" horiz-adv-x="512" d="" />
<glyph unicode="&#xe900;" glyph-name="heart" d="M512 795.136l-31.232 30.72c-50.338 47.679-118.487 76.997-193.485 76.997-155.523 0-281.6-126.077-281.6-281.6 0-74.87 29.219-142.916 76.875-193.356l-0.126 0.135 429.568-429.568 429.568 430.080c47.53 50.306 76.749 118.352 76.749 193.221 0 155.523-126.077 281.6-281.6 281.6-74.997 0-143.147-29.318-193.613-77.118l0.129 0.121-31.232-31.232z" />
<glyph unicode="&#xe901;" glyph-name="star-full" d="M512 192l-300.954-158.208 57.498 335.104-243.507 237.312 336.486 48.896 150.477 304.896 150.477-304.896 336.486-48.896-243.507-237.312 57.498-335.104z" />
<glyph unicode="&#xe902;" glyph-name="user-solid-circle" d="M512-64c-282.77 0-512 229.23-512 512s229.23 512 512 512v0c282.77 0 512-229.23 512-512s-229.23-512-512-512v0zM358.4 652.8v-102.4c0-84.831 68.769-153.6 153.6-153.6s153.6 68.769 153.6 153.6v0 102.4c0 84.831-68.769 153.6-153.6 153.6s-153.6-68.769-153.6-153.6v0zM171.52 220.672c74.541-110.327 199.152-181.904 340.48-181.904s265.938 71.577 339.558 180.457l0.922 1.447c-99.91 46.989-216.992 74.415-340.48 74.415s-240.569-27.426-345.486-76.519l5.006 2.104z" />
<glyph unicode="&#xe903;" glyph-name="add-outline" d="M563.2 499.2h204.8v-102.4h-204.8v-204.8h-102.4v204.8h-204.8v102.4h204.8v204.8h102.4v-204.8zM512-64c-282.77 0-512 229.23-512 512s229.23 512 512 512v0c282.77 0 512-229.23 512-512s-229.23-512-512-512v0zM512 38.4c226.216 0 409.6 183.384 409.6 409.6s-183.384 409.6-409.6 409.6v0c-226.216 0-409.6-183.384-409.6-409.6s183.384-409.6 409.6-409.6v0z" />
<glyph unicode="&#xe904;" glyph-name="arrow-thin-down" d="M460.8 131.994l-310.835 310.835-72.397-72.397 434.432-434.432 434.432 434.432-72.397 72.397-310.835-310.835v828.006h-102.4z" />
<glyph unicode="&#xe905;" glyph-name="arrow-thin-left" d="M195.994 499.2l310.835 310.835-72.397 72.397-434.432-434.432 434.432-434.432 72.397 72.397-310.835 310.835h828.006v102.4h-828.006z" />
<glyph unicode="&#xe906;" glyph-name="arrow-thin-right" d="M828.006 499.2l-310.835 310.835 72.397 72.397 434.432-434.432-434.432-434.432-72.397 72.397 310.835 310.835h-828.006v102.4z" />
<glyph unicode="&#xe907;" glyph-name="arrow-thin-up" d="M460.8 764.006l-310.835-310.835-72.397 72.397 434.432 434.432 434.432-434.432-72.397-72.397-310.835 310.835v-828.006h-102.4v828.006z" />
<glyph unicode="&#xe908;" glyph-name="checkmark-outline" d="M150.016 86.016c-96.436 93.233-156.308 223.762-156.308 368.276 0 282.77 229.23 512 512 512 144.514 0 275.043-59.872 368.137-156.164l0.138-0.144c88.925-91.979 143.724-217.436 143.724-355.692 0-282.77-229.23-512-512-512-138.256 0-263.713 54.799-355.836 143.863l0.144-0.138zM801.792 158.208c74.164 74.164 120.036 176.621 120.036 289.792 0 226.342-183.486 409.828-409.828 409.828-113.171 0-215.628-45.872-289.792-120.036v0c-74.164-74.164-120.036-176.621-120.036-289.792 0-226.342 183.486-409.828 409.828-409.828 113.171 0 215.628 45.872 289.792 120.036v0zM343.040 484.352l117.76-118.272 220.16 220.16 71.68-72.704-291.84-290.816-189.44 189.44 71.68 72.704z" />
<glyph unicode="&#xe909;" glyph-name="checkmark" d="M0 396.8l102.4 102.4 256-256 563.2 563.2 102.4-102.4-665.6-665.6z" />
<glyph unicode="&#xe90a;" glyph-name="cheveron-down" d="M475.802 296.96l36.198-36.198 289.638 289.638-72.397 72.397-217.242-217.19-217.242 217.19-72.397-72.397z" />
<glyph unicode="&#xe90b;" glyph-name="cheveron-left" d="M360.96 484.198l-36.198-36.198 289.638-289.638 72.397 72.397-217.19 217.242 217.19 217.242-72.397 72.397z" />
<glyph unicode="&#xe90c;" glyph-name="cheveron-right" d="M663.040 411.802l36.198 36.198-289.638 289.638-72.397-72.397 217.19-217.242-217.19-217.242 72.397-72.397 253.44 253.44z" />
<glyph unicode="&#xe90d;" glyph-name="cheveron-up" d="M548.198 599.040l-36.198 36.198-289.638-289.638 72.397-72.397 217.242 217.19 217.242-217.19 72.397 72.397z" />
<glyph unicode="&#xe90e;" glyph-name="close" d="M512 520.397l-362.035 362.035-72.397-72.397 362.035-362.035-362.035-362.035 72.397-72.397 362.035 362.035 362.035-362.035 72.397 72.397-362.035 362.035 362.035 362.035-72.397 72.397-362.035-362.035z" />
</font></defs></svg>